<?xml version="1.0" encoding="UTF-8" standalone="no"?>
<!-- Created with Inkscape (http://www.inkscape.org/) -->

<svg
   width="120"
   height="120"
   viewBox="0 0 31.749999 31.749999"
   version="1.1"
   id="svg1"
   inkscape:version="1.3.2 (091e20ef0f, 2023-11-25)"
   sodipodi:docname="midi_bg_black.svg"
   inkscape:export-filename="..\..\..\Pictures\newnimprovedmidilogo\midi_light_128x128.svg"
   inkscape:export-xdpi="102.4"
   inkscape:export-ydpi="102.4"
   xmlns:inkscape="http://www.inkscape.org/namespaces/inkscape"
   xmlns:sodipodi="http://sodipodi.sourceforge.net/DTD/sodipodi-0.dtd"
   xmlns="http://www.w3.org/2000/svg"
   xmlns:svg="http://www.w3.org/2000/svg">
  <sodipodi:namedview
     id="namedview1"
     pagecolor="#ffffff"
     bordercolor="#000000"
     borderopacity="0.25"
     inkscape:showpageshadow="2"
     inkscape:pageopacity="0.0"
     inkscape:pagecheckerboard="0"
     inkscape:deskcolor="#d1d1d1"
     inkscape:document-units="px"
     showguides="false"
     inkscape:zoom="5.364918"
     inkscape:cx="60.671943"
     inkscape:cy="65.238648"
     inkscape:window-width="2256"
     inkscape:window-height="1427"
     inkscape:window-x="0"
     inkscape:window-y="0"
     inkscape:window-maximized="1"
     inkscape:current-layer="layer1"
     showgrid="true">
    <sodipodi:guide
       position="-10.134162,30.956249"
       orientation="0,1"
       id="guide8"
       inkscape:locked="false"
       inkscape:label=""
       inkscape:color="rgb(0,134,229)" />
    <sodipodi:guide
       position="16.933333,55.047256"
       orientation="-1,0"
       id="guide17"
       inkscape:locked="false"
       inkscape:label=""
       inkscape:color="rgb(0,134,229)" />
    <inkscape:grid
       type="xygrid"
       id="grid436"
       visible="true"
       originx="0"
       originy="0"
       empspacing="8"
       dotted="false"
       spacingx="0.26458333"
       spacingy="0.26458333" />
  </sodipodi:namedview>
  <defs
     id="defs1" />
  <g
     inkscape:label="Layer 1"
     inkscape:groupmode="layer"
     id="layer1">
    <rect
       style="display:inline;fill:#000000;fill-opacity:1;fill-rule:evenodd;stroke:none;stroke-width:1.294;stroke-dasharray:none;stroke-opacity:1;paint-order:markers stroke fill"
       id="rect9889"
       width="31.75"
       height="31.75"
       x="0"
       y="0"
       inkscape:label="bg" />
    <rect
       style="fill:#f7f7f7;fill-opacity:1;fill-rule:evenodd;stroke:none;stroke-width:1.294;stroke-dasharray:none;stroke-opacity:1;paint-order:markers stroke fill"
       id="rect7626"
       width="19.049999"
       height="19.049999"
       x="6.3499999"
       y="6.3499999"
       inkscape:label="bounding rect" />
    <path
       style="fill:#010101;fill-opacity:1;fill-rule:evenodd;stroke:none;stroke-width:1.294;stroke-dasharray:none;stroke-opacity:1;paint-order:markers stroke fill"
       d="M 14.816666,16.933333 H 8.4666666 v 6.35 H 14.816666 V 21.166667 H 10.583333 V 19.05 h 4.233333 z"
       id="path7846"
       inkscape:label="d" />
    <path
       style="fill:#010101;fill-opacity:1;fill-rule:evenodd;stroke:none;stroke-width:1.294;stroke-dasharray:none;stroke-opacity:1;paint-order:markers stroke fill"
       d="M 19.05,8.4666666 V 23.283333 h 2.116667 V 8.4666666 Z"
       id="path7848"
       inkscape:label="ee" />
    <path
       id="rect7910"
       style="fill:#010101;fill-rule:evenodd;stroke-width:1.294;paint-order:markers stroke fill"
       d="M 8.4666661,8.4666661 V 14.816666 H 14.816666 V 8.4666661 Z M 10.583333,10.583333 H 12.7 V 12.7 h -2.116667 z"
       inkscape:label="m" />
  </g>
</svg>
